{
	"info": {
		"_postman_id": "66a04fc7-50ee-48ae-b51f-bcd4118cd75e",
		"name": "Verspaetung Transport",
		"description": "Service responsible of handle vehicle services for verspaetung transport.",
		"schema": "https://schema.getpostman.com/json/collection/v2.1.0/collection.json",
		"_exporter_id": "7968494"
	},
	"item": [
		{
			"name": "Vehicle Endpoints",
			"item": [
				{
					"name": "Vehicle for Coordinate and Time",
					"event": [
						{
							"listen": "test",
							"script": {
								"exec": [
									"// Validate the http status code is valid.",
									"pm.test(\"Retrieve vehicles for coordinate and time response is 200\", function () {",
									"    pm.response.to.have.status(200);",
									"});",
									"",
									"// Validate the json structure contains every key.",
									"pm.test(\"Retrieve vehicles for coordinate and time body is valid\", function() {",
									"    var json = JSON.parse(responseBody);",
									"    ",
									"    pm.expect(json).to.be.an(\"array\");",
									"",
									"    for (var i=0; i<json.length; i++) {",
									"        pm.expect(json[i]).to.have.property(\"id\");",
									"        pm.expect(json[i]).to.have.property(\"name\");",
									"        pm.expect(json[i]).to.have.property(\"delay\");",
									"    }",
									"});"
								],
								"type": "text/javascript"
							}
						}
					],
					"request": {
						"method": "GET",
						"header": [],
						"url": {
							"raw": "http://{{transport_host}}/vehicles/{{x}}/{{y}}/{{time}}",
							"protocol": "http",
							"host": [
								"{{transport_host}}"
							],
							"path": [
								"vehicles",
								"{{x}}",
								"{{y}}",
								"{{time}}"
							]
						},
						"description": "Find a list of vehicles for a given x and y at specific time."
					},
					"response": []
				},
				{
					"name": "Next Arrival at Stop",
					"event": [
						{
							"listen": "test",
							"script": {
								"exec": [
									"// Validate the http status code is valid.",
									"pm.test(\"Next arrival at stop response is 200\", function () {",
									"    pm.response.to.have.status(200);",
									"});",
									"",
									"// Validate the json structure contains every key.",
									"pm.test(\"Next arrival at stop body is valid\", function() {",
									"    var json = JSON.parse(responseBody);",
									"    ",
									"    pm.expect(json).to.be.an(\"array\");",
									"",
									"    for (var i=0; i<json.length; i++) {",
									"        pm.expect(json[i]).to.have.property(\"id\");",
									"        pm.expect(json[i]).to.have.property(\"name\");",
									"        pm.expect(json[i]).to.have.property(\"delay\");",
									"    }",
									"});"
								],
								"type": "text/javascript"
							}
						}
					],
					"request": {
						"method": "GET",
						"header": [],
						"url": {
							"raw": "http://{{transport_host}}/vehicles/{{stop_id}}",
							"protocol": "http",
							"host": [
								"{{transport_host}}"
							],
							"path": [
								"vehicles",
								"{{stop_id}}"
							]
						},
						"description": "Find a list of vehicles for a given stop identifier."
					},
					"response": []
				}
			],
			"description": "Supported operations to query vehicles data."
		},
		{
			"name": "Line Endpoints",
			"item": [
				{
					"name": "Delay Line by Id",
					"event": [
						{
							"listen": "test",
							"script": {
								"exec": [
									"// Validate the http status code is valid.",
									"pm.test(\"Retrieve delay line by identifier response is 200\", function () {",
									"    pm.response.to.have.status(200);",
									"});"
								],
								"type": "text/javascript"
							}
						}
					],
					"request": {
						"method": "GET",
						"header": [],
						"url": {
							"raw": "http://{{transport_host}}/lines/delay/{{line_id}}",
							"protocol": "http",
							"host": [
								"{{transport_host}}"
							],
							"path": [
								"lines",
								"delay",
								"{{line_id}}"
							]
						},
						"description": "Find a delay line for a given identifier."
					},
					"response": []
				}
			],
			"description": "Supported operations to query line data."
		}
	]
}