{
	"id": "7137cca1-3f52-4a7e-b33c-5114a8b479a8",
	"name": "Verspaetung Transport (local)",
	"values": [
		{
			"key": "transport_host",
			"value": "localhost:8080",
			"enabled": true
		},
		{
			"key": "line_id",
			"value": "1",
			"enabled": true
		},
		{
			"key": "x",
			"value": "1",
			"enabled": true
		},
		{
			"key": "y",
			"value": "4",
			"enabled": true
		},
		{
			"key": "time",
			"value": "10:03",
			"enabled": true
		},
		{
			"key": "stop_id",
			"value": "1",
			"enabled": true
		}
	],
	"_postman_variable_scope": "environment",
	"_postman_exported_at": "2023-02-19T12:36:45.742Z",
	"_postman_exported_using": "Postman/10.10.6"
}